<svg width="11" height="8" viewBox="0 0 11 8" fill="none" xmlns="http://www.w3.org/2000/svg">
<path d="M10.25 2.8375L8.35 0.9375L5.5 3.7875L2.65 0.9375L0.75 2.8375L5.5 7.5875L10.25 2.8375Z" fill="#5E72E4"/>
</svg>
